{
    "extensionDescription": {
        "message": "Lhe protege de rastreamento feito usando centrais de disponibilização de conteúdo \"gratuitas\".",
        "description": "Extension description."
    },
    "amountInjectedDescription": {
        "message": "Total de injeções locais de recursos de Redes de Distribuição de Conteúdo desde a instalação.",
        "description": "Amount injected description."
    },
    "optionsTitle": {
        "message": "Opções",
        "description": "Options title"
    },
    "showIconBadgeTitle": {
        "message": "Exibir total de injeções no ícone",
        "description": "Show icon badge title"
    },
    "showIconBadgeDescription": {
        "message": "Mostra o total de injeções de recursos no ícone do complemento.",
        "description": "Show icon badge description."
    },
    "blockMissingTitle": {
        "message": "Bloquear requisições a recursos faltosos",
        "description": "Block requests for missing resources title"
    },
    "blockMissingDescription": {
        "message": "Cancela requisições interceptadas se o recurso necessário não está disponível localmente.",
        "description": "Block requests for missing resources description."
    },
    "disablePrefetchTitle": {
        "message": "Desabilitar pré-carregamento de links",
        "description": "Disable prefetch title"
    },
    "disablePrefetchDescription": {
        "message": "Impede que requisições não permitidas vazem para as redes de distribuição de conteúdo.",
        "description": "Disable prefetch description."
    },
    "stripMetadataTitle": {
        "message": "Remover metadados de requisições permitidas",
        "description": "Strip metadata title"
    },
    "stripMetadataDescription": {
        "message": "Apaga dados sensíveis de requisições à CDNs permitidas visando melhorar a privacidade.",
        "description": "Strip metadata description."
    },
    "whitelistedDomainsTitle": {
        "message": "Desativar o LocalCDN para esse domínios:",
        "description": "Deactivate LocalCDN for these domains:"
    },
    "whitelistedDomainsDescription": {
        "message": "Digite os domínios para desabilitar o LocalCDN neles. Separe múltiplos domínios com ponto e vírgula (;).",
        "description": "Enter domains to disable LocalCDN there. Separate multiple entries with semi-colons (;)."
    },
    "advancedLabel": {
        "message": "Avançado",
        "description": "Advanced label"
    },
    "generateRuleSetTitle": {
        "message": "Gere conjuntos de regras para uBlock ou uMatrix",
        "description": "Generate rule set title"
    },
    "generateRuleSetDescription": {
        "message": "No caso de você estar usando uBlock ou uMatrix você pode gerar as regras aqui. Você tem que adicionar essas regras manualmente no uBlock Origin ou uMatrix.",
        "description": "In case you are using uBlock Origin or uMatrix you can generate the rules here. You have to add these rules manually in uBlock Origin or uMatrix."
    },
    "lastUpdate": {
        "message": "Última atualização:",
        "description": "Last update:"
    },
    "copyRuleSet": {
        "message": "Copiar",
        "description": "Text of button to copy ruleset"
    },
    "loggingTitle": {
        "message": "Habilitar logging no console do browser",
        "description": "Enable logging in browser console"
    },
    "loggingDescription": {
        "message": "Abra \"Browser Console\" ( CTRL + SHIFT + J ) para mostrar recursos faltantes.",
        "description": "Open \"Browser Console\" ( CTRL + SHIFT + J ) to show missing resources."
    },
    "hideReleaseNotesTitle": {
        "message": "Desabilitar notas de lançamento",
        "description": "Disable release notes"
    },
    "hideReleaseNotesDescription": {
        "message": "Habilite isso para não receber informações sobre novos recursos do LocalCDN. Isso inclui informação sobre novas regras do uBlock/uMatrix.",
        "description": "If enabled, you wont receive any information about new features in LocalCDN. This includes information about new uBlock/uMatrix rules."
    },
    "featureBreaksWebsitesDescription": {
        "message": "Esse recurso quebra sites. Não deixe habilitado, a não ser que você esteja preparado para manualmente colocar os sites afetados na Lista Branca.",
        "description": "This feature breaks websites. Do not leave it enabled, unless you are prepared to manually whitelist any affected domains."
    },
    "featureBreaksWebsitesButton": {
        "message": "Desabilitar",
        "description": "Disable"
    },
    "labelManipulateDOM": {
        "message": "Filtrar código HTML",
        "description": "Filter HTML source code"
    },
    "labelDonate": {
        "message": "Doar",
        "description": "Donate"
    },
    "negateHtmlFilterListTitle": {
        "message": "Inverter filtro HTML",
        "description": "Invert HTML filter"
    },
    "negateHtmlFilterListDescription": {
        "message": "Habilite essa opção para sempre aplicar o filtro HTML. Os domínios na lista serão ignorados. Se essa opção está desabilitada, o filtro HTML é apenas aplicados a domínios na lista.",
        "description": "Enable this option to always apply the HTML filter. The domains in the list will be ignored then. If this option is disabled, the HTML filter is only applied to domains in the list."
    },
    "negateHtmlFilterListWarning": {
        "message": "Essa função quebra sites. Por favor, olhe a informação na página da Wiki.",
        "description": "This function can break websites. Please note the information on the Wiki page."
    },
    "htmlFilterDomainsTitleExclude": {
        "message": "Não aplique o filtro HTML para esses domínios:",
        "description": "Do not apply HTML filter to these domains:"
    },
    "htmlFilterDomainsDescription": {
        "message": "Entre os domínios que irão ser usados ou ignorados pelo filtro HTML. Separe múltiplas entradas com ponto e vírgula (;).",
        "description": "Enter the domains to be handled or ignored by the HTML filter. Separate multiple entries with semi-colons (;)."
    },
    "htmlFilterDomainsTitleInclude": {
        "message": "Aplique o filtro HTML para esses domínios:",
        "description": "Apply HTML filter for these domains:"
    },
    "blockGoogleFontsTitle": {
        "message": "Bloquear Google Fonts",
        "description": "Block Google Fonts"
    },
    "blockGoogleFontsDescription": {
        "message": "Se pedidos para recursos faltantes são permitidos, conexões para \"fonts.googleapis.com\" não são bloqueadas. Habilite essa opção para bloquear esses pedidos.",
        "description": "If requests for missing resources are allowed, connections to \"fonts.googleapis.com\" are not blocked. Enable this option to block these requests."
    },
    "chooseIconStyle": {
        "message": "Escolha um ícone para essa extensão",
        "description": "Choose an icon for this extension"
    }
}
