{
    "extensionDescription": {
        "message": "Beschermt tegen tracking via het \"gratis\", gecentraliseerd, verzorgen van content.",
        "description": "Extension description."
    },
    "amountInjectedDescription": {
        "message": "Aantal lokale Content Delivery Network-bestandsinjecties sinds installatie.",
        "description": "Amount injected description."
    },
    "optionsTitle": {
        "message": "Opties",
        "description": "Options title"
    },
    "showIconBadgeTitle": {
        "message": "Getelde injecties op icoon weergeven",
        "description": "Show icon badge title"
    },
    "showIconBadgeDescription": {
        "message": "Toon het aantal geïnjecteerde bestanden op het extensie-icoon.",
        "description": "Show icon badge description."
    },
    "blockMissingTitle": {
        "message": "Verzoeken voor ontbrekende items blokkeren",
        "description": "Block requests for missing resources title"
    },
    "blockMissingDescription": {
        "message": "Annuleer een onderschept verzoek wanneer het bestand niet lokaal beschikbaar is.",
        "description": "Block requests for missing resources description."
    },
    "disablePrefetchTitle": {
        "message": "Link prefetching uitschakelen",
        "description": "Disable prefetch title"
    },
    "disablePrefetchDescription": {
        "message": "Voorkom dat geweigerde verzoeken naar afleveringsnetwerken uitlekken.",
        "description": "Disable prefetch description."
    },
    "stripMetadataTitle": {
        "message": "Metadata uit toegestane verzoeken verwijderen",
        "description": "Strip metadata title"
    },
    "stripMetadataDescription": {
        "message": "Wis gevoelige gegevens uit toegestane CDN-verzoeken voor verbeterde privacy.",
        "description": "Strip metadata description."
    },
    "whitelistedDomainsTitle": {
        "message": "Sluit domeinen uit van inspecties",
        "description": "Deactivate LocalCDN for these domains:"
    },
    "whitelistedDomainsDescription": {
        "message": "Voer de te negeren domeinen in. Scheid de waarden met puntkomma's (;).",
        "description": "Enter domains to disable LocalCDN there. Separate multiple entries with semi-colons (;)."
    },
    "advancedLabel": {
        "message": "Geavanceerd",
        "description": "Advanced label"
    },
    "generateRuleSetTitle": {
        "message": "Genereer regelsets voor uBlock of uMatrix",
        "description": "Generate rule set title"
    },
    "generateRuleSetDescription": {
        "message": "",
        "description": "In case you are using uBlock Origin or uMatrix you can generate the rules here. You have to add these rules manually in uBlock Origin or uMatrix."
    },
    "lastUpdate": {
        "message": "",
        "description": "Last update:"
    },
    "copyRuleSet": {
        "message": "",
        "description": "Text of button to copy ruleset"
    },
    "loggingTitle": {
        "message": "",
        "description": "Enable logging in browser console"
    },
    "loggingDescription": {
        "message": "",
        "description": "Open \"Browser Console\" ( CTRL + SHIFT + J ) to show missing resources."
    },
    "hideReleaseNotesTitle": {
        "message": "",
        "description": "Disable release notes"
    },
    "hideReleaseNotesDescription": {
        "message": "",
        "description": "If enabled, you wont receive any information about new features in LocalCDN. This includes information about new uBlock/uMatrix rules."
    },
    "featureBreaksWebsitesDescription": {
        "message": "",
        "description": "This feature breaks websites. Do not leave it enabled, unless you are prepared to manually whitelist any affected domains."
    },
    "featureBreaksWebsitesButton": {
        "message": "",
        "description": "Disable"
    },
    "labelManipulateDOM": {
        "message": "",
        "description": "Filter HTML source code"
    },
    "labelDonate": {
        "message": "",
        "description": "Donate"
    },
    "negateHtmlFilterListTitle": {
        "message": "",
        "description": "Invert HTML filter"
    },
    "negateHtmlFilterListDescription": {
        "message": "",
        "description": "Enable this option to always apply the HTML filter. The domains in the list will be ignored then. If this option is disabled, the HTML filter is only applied to domains in the list."
    },
    "negateHtmlFilterListWarning": {
        "message": "",
        "description": "This function can break websites. Please note the information on the Wiki page."
    },
    "htmlFilterDomainsTitleExclude": {
        "message": "",
        "description": "Do not apply HTML filter to these domains:"
    },
    "htmlFilterDomainsDescription": {
        "message": "",
        "description": "Enter the domains to be handled or ignored by the HTML filter. Separate multiple entries with semi-colons (;)."
    },
    "htmlFilterDomainsTitleInclude": {
        "message": "",
        "description": "Apply HTML filter for these domains:"
    },
    "blockGoogleFontsTitle": {
        "message": "",
        "description": "Block Google Fonts"
    },
    "blockGoogleFontsDescription": {
        "message": "",
        "description": "If requests for missing resources are allowed, connections to \"fonts.googleapis.com\" are not blocked. Enable this option to block these requests."
    },
    "chooseIconStyle": {
        "message": "",
        "description": "Choose an icon for this extension"
    }
}
