{
    "extensionDescription": {
        "message": "Decentraleyes protektas vin kontraŭ sekvado per senkostaj, centraj enhav-proviz-retoj.",
        "description": "Extension description."
    },
    "amountInjectedDescription": {
        "message": "Kvanto de lokaj CDN-risurcoj enmetitaj ekde instaliĝo.",
        "description": "Amount injected description."
    },
    "optionsTitle": {
        "message": "Elektebloj",
        "description": "Options title"
    },
    "showIconBadgeTitle": {
        "message": "Montri nombrilon sur piktogramo",
        "description": "Show icon badge title"
    },
    "showIconBadgeDescription": {
        "message": "Montri nombron da enmetataj risurcoj sur la aldonaĵa piktogramo.",
        "description": "Show icon badge description."
    },
    "blockMissingTitle": {
        "message": "Bloki petojn por mankaj risurcoj",
        "description": "Block requests for missing resources title"
    },
    "blockMissingDescription": {
        "message": "Bloki petojn interkaptitajn se la petitan risurcon ne loke haveblas.",
        "description": "Block requests for missing resources description."
    },
    "disablePrefetchTitle": {
        "message": "Ne antaŭlegi ligilojn",
        "description": "Disable prefetch title"
    },
    "disablePrefetchDescription": {
        "message": "Bloki malpermesatajn petojn por preventi tralasojn al enhav-proviz-retoj.",
        "description": "Disable prefetch description."
    },
    "stripMetadataTitle": {
        "message": "Forigi metadatumojn el permesataj petoj",
        "description": "Strip metadata title"
    },
    "stripMetadataDescription": {
        "message": "Forviŝi delikatajn datumojn el permesataj CDN-petoj por plibonigi privatecon.",
        "description": "Strip metadata description."
    },
    "whitelistedDomainsTitle": {
        "message": "Neinspektendaj domajnoj",
        "description": "Deactivate LocalCDN for these domains:"
    },
    "whitelistedDomainsDescription": {
        "message": "Entajpu demajnojn, kiujn Decentraleyes ne devas inspekti. Disigu domajnojn per punktokomoj (;).",
        "description": "Enter domains to disable LocalCDN there. Separate multiple entries with semi-colons (;)."
    },
    "advancedLabel": {
        "message": "Spertula",
        "description": "Advanced label"
    },
    "generateRuleSetTitle": {
        "message": "Generi regulojn por uBlock aŭ uMatrix",
        "description": "Generate rule set title"
    },
    "generateRuleSetDescription": {
        "message": "",
        "description": "In case you are using uBlock Origin or uMatrix you can generate the rules here. You have to add these rules manually in uBlock Origin or uMatrix."
    },
    "lastUpdate": {
        "message": "",
        "description": "Last update:"
    },
    "copyRuleSet": {
        "message": "",
        "description": "Text of button to copy ruleset"
    },
    "loggingTitle": {
        "message": "",
        "description": "Enable logging in browser console"
    },
    "loggingDescription": {
        "message": "",
        "description": "Open \"Browser Console\" ( CTRL + SHIFT + J ) to show missing resources."
    },
    "hideReleaseNotesTitle": {
        "message": "",
        "description": "Disable release notes"
    },
    "hideReleaseNotesDescription": {
        "message": "",
        "description": "If enabled, you wont receive any information about new features in LocalCDN. This includes information about new uBlock/uMatrix rules."
    },
    "featureBreaksWebsitesDescription": {
        "message": "",
        "description": "This feature breaks websites. Do not leave it enabled, unless you are prepared to manually whitelist any affected domains."
    },
    "featureBreaksWebsitesButton": {
        "message": "",
        "description": "Disable"
    },
    "labelManipulateDOM": {
        "message": "",
        "description": "Filter HTML source code"
    },
    "labelDonate": {
        "message": "",
        "description": "Donate"
    },
    "negateHtmlFilterListTitle": {
        "message": "",
        "description": "Invert HTML filter"
    },
    "negateHtmlFilterListDescription": {
        "message": "",
        "description": "Enable this option to always apply the HTML filter. The domains in the list will be ignored then. If this option is disabled, the HTML filter is only applied to domains in the list."
    },
    "negateHtmlFilterListWarning": {
        "message": "",
        "description": "This function can break websites. Please note the information on the Wiki page."
    },
    "htmlFilterDomainsTitleExclude": {
        "message": "",
        "description": "Do not apply HTML filter to these domains:"
    },
    "htmlFilterDomainsDescription": {
        "message": "",
        "description": "Enter the domains to be handled or ignored by the HTML filter. Separate multiple entries with semi-colons (;)."
    },
    "htmlFilterDomainsTitleInclude": {
        "message": "",
        "description": "Apply HTML filter for these domains:"
    },
    "blockGoogleFontsTitle": {
        "message": "",
        "description": "Block Google Fonts"
    },
    "blockGoogleFontsDescription": {
        "message": "",
        "description": "If requests for missing resources are allowed, connections to \"fonts.googleapis.com\" are not blocked. Enable this option to block these requests."
    },
    "chooseIconStyle": {
        "message": "",
        "description": "Choose an icon for this extension"
    }
}
