{
    "extensionDescription": {
        "message": "Véd attól, hogy az „ingyenes”, centralizált tartalomszolgáltatók kövessenek.",
        "description": "Extension description."
    },
    "amountInjectedDescription": {
        "message": "Telepítés óta beszúrt helyi Content Delivery Network erőforrások száma.",
        "description": "Amount injected description."
    },
    "optionsTitle": {
        "message": "Beállítások",
        "description": "Options title"
    },
    "showIconBadgeTitle": {
        "message": "Beszúrások számlálójának megjelenítése az ikonon",
        "description": "Show icon badge title"
    },
    "showIconBadgeDescription": {
        "message": "A beszúrt erőforrások számának megjelenítése a bővítmény ikonján.",
        "description": "Show icon badge description."
    },
    "blockMissingTitle": {
        "message": "Hiányzó erőforrások blokkolása",
        "description": "Block requests for missing resources title"
    },
    "blockMissingDescription": {
        "message": "Megszakított kérések blokkolása, amennyiben a kért erőforrás nem érhető el helyben.",
        "description": "Block requests for missing resources description."
    },
    "disablePrefetchTitle": {
        "message": "Link prefetching letiltása",
        "description": "Disable prefetch title"
    },
    "disablePrefetchDescription": {
        "message": "Letiltott kérések kiszivárgásának megakadályozása.",
        "description": "Disable prefetch description."
    },
    "stripMetadataTitle": {
        "message": "Metaadatok törlése az engedélyezett kérésekből",
        "description": "Strip metadata title"
    },
    "stripMetadataDescription": {
        "message": "Érzékeny adatok törlése az engedélyezett CDN kérésekből.",
        "description": "Strip metadata description."
    },
    "whitelistedDomainsTitle": {
        "message": "Domainek vizsgálatának elhagyása",
        "description": "Deactivate LocalCDN for these domains:"
    },
    "whitelistedDomainsDescription": {
        "message": "Írj be domaineket, amik ne legyenek megvizsgálva. Az elemeket pontosvesszővel (;) kell elválasztani.",
        "description": "Enter domains to disable LocalCDN there. Separate multiple entries with semi-colons (;)."
    },
    "advancedLabel": {
        "message": "Haladó",
        "description": "Advanced label"
    },
    "generateRuleSetTitle": {
        "message": "Szabálykészleteket generálhat az uBlock vagy az uMatrix számára",
        "description": "Generate rule set title"
    },
    "generateRuleSetDescription": {
        "message": "Ha esetleg uBlockot vagy uMatrixot használsz, itt generálhatsz szabályokat. Kézzel kell hozzáadnod őket a uBlockban vagy uMatrixban.",
        "description": "In case you are using uBlock Origin or uMatrix you can generate the rules here. You have to add these rules manually in uBlock Origin or uMatrix."
    },
    "lastUpdate": {
        "message": "Utolsó frissítés:",
        "description": "Last update:"
    },
    "copyRuleSet": {
        "message": "Másolás",
        "description": "Text of button to copy ruleset"
    },
    "loggingTitle": {
        "message": "Naplózás engedélyezése a böngészőkonzolban",
        "description": "Enable logging in browser console"
    },
    "loggingDescription": {
        "message": "Nyisd meg a „Böngészőkonzol”-t ( CTRL + SHIFT + J ) a hiányzó erőforrások mutatásáért.",
        "description": "Open \"Browser Console\" ( CTRL + SHIFT + J ) to show missing resources."
    },
    "hideReleaseNotesTitle": {
        "message": "Kiadási megjegyzések letiltása",
        "description": "Disable release notes"
    },
    "hideReleaseNotesDescription": {
        "message": "Kapcsold be, ha nem akarsz új LocalCDN funkciókról információt kapni. Ez tartalmazza az új uBlock/uMatrix szabályokat.",
        "description": "If enabled, you wont receive any information about new features in LocalCDN. This includes information about new uBlock/uMatrix rules."
    },
    "featureBreaksWebsitesDescription": {
        "message": "Ez a funkció megakadályozza a weboldalak helyes működését. Ne hagyd engedélyezve, hacsak nem állsz készen manuálisan a fehérlistára helyezni bármilyen érintett domaint.",
        "description": "This feature breaks websites. Do not leave it enabled, unless you are prepared to manually whitelist any affected domains."
    },
    "featureBreaksWebsitesButton": {
        "message": "Letiltás",
        "description": "Disable"
    },
    "labelManipulateDOM": {
        "message": "HTML forráskód szűrése",
        "description": "Filter HTML source code"
    },
    "labelDonate": {
        "message": "Adomány",
        "description": "Donate"
    },
    "negateHtmlFilterListTitle": {
        "message": "HTML szűrő megfordítása",
        "description": "Invert HTML filter"
    },
    "negateHtmlFilterListDescription": {
        "message": "Engedélyezd ezt az opciót a HTML szűrő alkalmazásához. A listában szereplő domainek figyelmen kívül lesznek hagyva. Ha ez az opció ki van kapcsolva, a HTML szűrő csak a listában szereplő domainekre vonatkozik.",
        "description": "Enable this option to always apply the HTML filter. The domains in the list will be ignored then. If this option is disabled, the HTML filter is only applied to domains in the list."
    },
    "negateHtmlFilterListWarning": {
        "message": "Ez a funkció megakadályozhatja a weboldalak helyes működését. Kérlek, vedd figyelembe a Wiki oldalon szereplő információt.",
        "description": "This function can break websites. Please note the information on the Wiki page."
    },
    "htmlFilterDomainsTitleExclude": {
        "message": "",
        "description": "Do not apply HTML filter to these domains:"
    },
    "htmlFilterDomainsDescription": {
        "message": "",
        "description": "Enter the domains to be handled or ignored by the HTML filter. Separate multiple entries with semi-colons (;)."
    },
    "htmlFilterDomainsTitleInclude": {
        "message": "",
        "description": "Apply HTML filter for these domains:"
    },
    "blockGoogleFontsTitle": {
        "message": "",
        "description": "Block Google Fonts"
    },
    "blockGoogleFontsDescription": {
        "message": "",
        "description": "If requests for missing resources are allowed, connections to \"fonts.googleapis.com\" are not blocked. Enable this option to block these requests."
    },
    "chooseIconStyle": {
        "message": "",
        "description": "Choose an icon for this extension"
    }
}
