{
    "extensionDescription": {
        "message": "保护你免受“免费”，中心化内容分发的跟踪。",
        "description": "Extension description."
    },
    "amountInjectedDescription": {
        "message": "自安装以来本地内容分发网络资源注入数量。",
        "description": "Amount injected description."
    },
    "optionsTitle": {
        "message": "选项",
        "description": "Options title"
    },
    "showIconBadgeTitle": {
        "message": "在图标上显示注入数量",
        "description": "Show icon badge title"
    },
    "showIconBadgeDescription": {
        "message": "在扩展图标上显示注入资源的数量。",
        "description": "Show icon badge description."
    },
    "blockMissingTitle": {
        "message": "阻止缺失资源的请求",
        "description": "Block requests for missing resources title"
    },
    "blockMissingDescription": {
        "message": "如果请求的资源在本地不可用，则取消被拦截的请求。",
        "description": "Block requests for missing resources description."
    },
    "disablePrefetchTitle": {
        "message": "禁用链接预读取",
        "description": "Disable prefetch title"
    },
    "disablePrefetchDescription": {
        "message": "避免本应禁止的请求发到网络。",
        "description": "Disable prefetch description."
    },
    "stripMetadataTitle": {
        "message": "清除被允许的请求中的元数据",
        "description": "Strip metadata title"
    },
    "stripMetadataDescription": {
        "message": "从被允许的 CDN 请求中擦除敏感数据以保护隐私。",
        "description": "Strip metadata description."
    },
    "whitelistedDomainsTitle": {
        "message": "排除要检查的域名:",
        "description": "Deactivate LocalCDN for these domains:"
    },
    "whitelistedDomainsDescription": {
        "message": "输入要禁用 LocalCDN 的域名。用分号 (;) 分隔多项。",
        "description": "Enter domains to disable LocalCDN there. Separate multiple entries with semi-colons (;)."
    },
    "advancedLabel": {
        "message": "高级",
        "description": "Advanced label"
    },
    "generateRuleSetTitle": {
        "message": "为 uBlock 或 uMatrix 生成规则集",
        "description": "Generate rule set title"
    },
    "generateRuleSetDescription": {
        "message": "如果你在使用 uBlock Origin 或者 uMatrix, 你可以在这里生成规则。你需要将这些规则手动添加到 uBlock Origin 或 uMatrix。",
        "description": "In case you are using uBlock Origin or uMatrix you can generate the rules here. You have to add these rules manually in uBlock Origin or uMatrix."
    },
    "lastUpdate": {
        "message": "最后更新：",
        "description": "Last update:"
    },
    "copyRuleSet": {
        "message": "复制",
        "description": "Text of button to copy ruleset"
    },
    "loggingTitle": {
        "message": "在浏览器控制台中启用日志记录",
        "description": "Enable logging in browser console"
    },
    "loggingDescription": {
        "message": "打开“浏览器控制台” ( CTRL + SHIFT + J ) 以展示缺失的资源.",
        "description": "Open \"Browser Console\" ( CTRL + SHIFT + J ) to show missing resources."
    },
    "hideReleaseNotesTitle": {
        "message": "关闭发布说明",
        "description": "Disable release notes"
    },
    "hideReleaseNotesDescription": {
        "message": "打开这个按钮以停止接受 LocalCDN 的所有新特性相关信息。这包括任何新的 uBlock/uMatrix 规则。",
        "description": "If enabled, you wont receive any information about new features in LocalCDN. This includes information about new uBlock/uMatrix rules."
    },
    "featureBreaksWebsitesDescription": {
        "message": "这个选项会损坏网页. 除非你准备要手动在白名单中添加任何被损坏的域名, 不要打开该选项.",
        "description": "This feature breaks websites. Do not leave it enabled, unless you are prepared to manually whitelist any affected domains."
    },
    "featureBreaksWebsitesButton": {
        "message": "关闭",
        "description": "Disable"
    },
    "labelManipulateDOM": {
        "message": "过滤 HTML 源码",
        "description": "Filter HTML source code"
    },
    "labelDonate": {
        "message": "捐赠",
        "description": "Donate"
    },
    "negateHtmlFilterListTitle": {
        "message": "反转 HTML 过滤器",
        "description": "Invert HTML filter"
    },
    "negateHtmlFilterListDescription": {
        "message": "启用此选项以始终应用 HTML 过滤器。列表中的域将被忽略。如果禁用此选项，则 HTML 过滤器仅应用于列表中的域。",
        "description": "Enable this option to always apply the HTML filter. The domains in the list will be ignored then. If this option is disabled, the HTML filter is only applied to domains in the list."
    },
    "negateHtmlFilterListWarning": {
        "message": "此功能可能会破坏网站。请注意 Wiki 页面上的信息。",
        "description": "This function can break websites. Please note the information on the Wiki page."
    },
    "htmlFilterDomainsTitleExclude": {
        "message": "不要将 HTML 过滤器应用于这些域：",
        "description": "Do not apply HTML filter to these domains:"
    },
    "htmlFilterDomainsDescription": {
        "message": "输入 HTML 过滤器要处理或忽略的域。使用分号 (;) 分隔多项。",
        "description": "Enter the domains to be handled or ignored by the HTML filter. Separate multiple entries with semi-colons (;)."
    },
    "htmlFilterDomainsTitleInclude": {
        "message": "对这些域应用 HTML 过滤器：",
        "description": "Apply HTML filter for these domains:"
    },
    "blockGoogleFontsTitle": {
        "message": "屏蔽 Google Fonts",
        "description": "Block Google Fonts"
    },
    "blockGoogleFontsDescription": {
        "message": "如果允许请求缺少资源，则不会阻止到 \"fonts.googleapis.com\" 的连接。启用此选项可阻止这些请求。",
        "description": "If requests for missing resources are allowed, connections to \"fonts.googleapis.com\" are not blocked. Enable this option to block these requests."
    },
    "chooseIconStyle": {
        "message": "选择此扩展程序的图标",
        "description": "Choose an icon for this extension"
    }
}
